^E:\CODE\PROJECTS\C++\RADIAN2\RADIAN2\RADIAN\SDK\CENTITY.CPP
/c /ZI /JMC /nologo /W3 /WX- /diagnostics:classic /sdl /Od /Oi /Oy- /D _CRT_SECURE_NO_WARNINGS /D _WINDLL /D _MBCS /Gm- /EHsc /RTC1 /MDd /GS /Gy /fp:precise /Zc:wchar_t /Zc:forScope /Zc:inline /std:c++latest /Fo"DEBUG\\" /Fd"DEBUG\VC141.PDB" /Gd /TP /analyze- /FC E:\CODE\PROJECTS\C++\RADIAN2\RADIAN2\RADIAN\SDK\CENTITY.CPP
^E:\CODE\PROJECTS\C++\RADIAN2\RADIAN2\RADIAN\UTILS\GLOBALVARS.CPP
/c /ZI /JMC /nologo /W3 /WX- /diagnostics:classic /sdl /Od /Oi /Oy- /D _CRT_SECURE_NO_WARNINGS /D _WINDLL /D _MBCS /Gm- /EHsc /RTC1 /MDd /GS /Gy /fp:precise /Zc:wchar_t /Zc:forScope /Zc:inline /std:c++latest /Fo"DEBUG\\" /Fd"DEBUG\VC141.PDB" /Gd /TP /analyze- /FC E:\CODE\PROJECTS\C++\RADIAN2\RADIAN2\RADIAN\UTILS\GLOBALVARS.CPP
^E:\CODE\PROJECTS\C++\RADIAN2\RADIAN2\RADIAN\UTILS\MATH.CPP
/c /ZI /JMC /nologo /W3 /WX- /diagnostics:classic /sdl /Od /Oi /Oy- /D _CRT_SECURE_NO_WARNINGS /D _WINDLL /D _MBCS /Gm- /EHsc /RTC1 /MDd /GS /Gy /fp:precise /Zc:wchar_t /Zc:forScope /Zc:inline /std:c++latest /Fo"DEBUG\\" /Fd"DEBUG\VC141.PDB" /Gd /TP /analyze- /FC E:\CODE\PROJECTS\C++\RADIAN2\RADIAN2\RADIAN\UTILS\MATH.CPP
^E:\CODE\PROJECTS\C++\RADIAN2\RADIAN2\RADIAN\UTILS\NETVARMANAGER.CPP
/c /ZI /JMC /nologo /W3 /WX- /diagnostics:classic /sdl /Od /Oi /Oy- /D _CRT_SECURE_NO_WARNINGS /D _WINDLL /D _MBCS /Gm- /EHsc /RTC1 /MDd /GS /Gy /fp:precise /Zc:wchar_t /Zc:forScope /Zc:inline /std:c++latest /Fo"DEBUG\\" /Fd"DEBUG\VC141.PDB" /Gd /TP /analyze- /FC E:\CODE\PROJECTS\C++\RADIAN2\RADIAN2\RADIAN\UTILS\NETVARMANAGER.CPP
^E:\CODE\PROJECTS\C++\RADIAN2\RADIAN2\RADIAN\UTILS\INTERFACES.CPP
/c /ZI /JMC /nologo /W3 /WX- /diagnostics:classic /sdl /Od /Oi /Oy- /D _CRT_SECURE_NO_WARNINGS /D _WINDLL /D _MBCS /Gm- /EHsc /RTC1 /MDd /GS /Gy /fp:precise /Zc:wchar_t /Zc:forScope /Zc:inline /std:c++latest /Fo"DEBUG\\" /Fd"DEBUG\VC141.PDB" /Gd /TP /analyze- /FC E:\CODE\PROJECTS\C++\RADIAN2\RADIAN2\RADIAN\UTILS\INTERFACES.CPP
^E:\CODE\PROJECTS\C++\RADIAN2\RADIAN2\RADIAN\DLLMAIN.CPP
/c /ZI /JMC /nologo /W3 /WX- /diagnostics:classic /sdl /Od /Oi /Oy- /D _CRT_SECURE_NO_WARNINGS /D _WINDLL /D _MBCS /Gm- /EHsc /RTC1 /MDd /GS /Gy /fp:precise /Zc:wchar_t /Zc:forScope /Zc:inline /std:c++latest /Fo"DEBUG\\" /Fd"DEBUG\VC141.PDB" /Gd /TP /analyze- /FC E:\CODE\PROJECTS\C++\RADIAN2\RADIAN2\RADIAN\DLLMAIN.CPP
^E:\CODE\PROJECTS\C++\RADIAN2\RADIAN2\RADIAN\FEATURES\LEGIT\LEGITBOT.CPP
/c /ZI /JMC /nologo /W3 /WX- /diagnostics:classic /sdl /Od /Oi /Oy- /D _CRT_SECURE_NO_WARNINGS /D _WINDLL /D _MBCS /Gm- /EHsc /RTC1 /MDd /GS /Gy /fp:precise /Zc:wchar_t /Zc:forScope /Zc:inline /std:c++latest /Fo"DEBUG\\" /Fd"DEBUG\VC141.PDB" /Gd /TP /analyze- /FC E:\CODE\PROJECTS\C++\RADIAN2\RADIAN2\RADIAN\FEATURES\LEGIT\LEGITBOT.CPP
^E:\CODE\PROJECTS\C++\RADIAN2\RADIAN2\RADIAN\FEATURES\VISUALS\ESP.CPP
/c /ZI /JMC /nologo /W3 /WX- /diagnostics:classic /sdl /Od /Oi /Oy- /D _CRT_SECURE_NO_WARNINGS /D _WINDLL /D _MBCS /Gm- /EHsc /RTC1 /MDd /GS /Gy /fp:precise /Zc:wchar_t /Zc:forScope /Zc:inline /std:c++latest /Fo"DEBUG\\" /Fd"DEBUG\VC141.PDB" /Gd /TP /analyze- /FC E:\CODE\PROJECTS\C++\RADIAN2\RADIAN2\RADIAN\FEATURES\VISUALS\ESP.CPP
^E:\CODE\PROJECTS\C++\RADIAN2\RADIAN2\RADIAN\FEATURES\AIMBOT\LAGCOMP.CPP
/c /ZI /JMC /nologo /W3 /WX- /diagnostics:classic /sdl /Od /Oi /Oy- /D _CRT_SECURE_NO_WARNINGS /D _WINDLL /D _MBCS /Gm- /EHsc /RTC1 /MDd /GS /Gy /fp:precise /Zc:wchar_t /Zc:forScope /Zc:inline /std:c++latest /Fo"DEBUG\\" /Fd"DEBUG\VC141.PDB" /Gd /TP /analyze- /FC E:\CODE\PROJECTS\C++\RADIAN2\RADIAN2\RADIAN\FEATURES\AIMBOT\LAGCOMP.CPP
^E:\CODE\PROJECTS\C++\RADIAN2\RADIAN2\RADIAN\FEATURES\AIMBOT\AIMBOT.CPP
/c /ZI /JMC /nologo /W3 /WX- /diagnostics:classic /sdl /Od /Oi /Oy- /D _CRT_SECURE_NO_WARNINGS /D _WINDLL /D _MBCS /Gm- /EHsc /RTC1 /MDd /GS /Gy /fp:precise /Zc:wchar_t /Zc:forScope /Zc:inline /std:c++latest /Fo"DEBUG\\" /Fd"DEBUG\VC141.PDB" /Gd /TP /analyze- /FC E:\CODE\PROJECTS\C++\RADIAN2\RADIAN2\RADIAN\FEATURES\AIMBOT\AIMBOT.CPP
^E:\CODE\PROJECTS\C++\RADIAN2\RADIAN2\RADIAN\FEATURES\AIMBOT\ENGINEPREDICTION.CPP
/c /ZI /JMC /nologo /W3 /WX- /diagnostics:classic /sdl /Od /Oi /Oy- /D _CRT_SECURE_NO_WARNINGS /D _WINDLL /D _MBCS /Gm- /EHsc /RTC1 /MDd /GS /Gy /fp:precise /Zc:wchar_t /Zc:forScope /Zc:inline /std:c++latest /Fo"DEBUG\\" /Fd"DEBUG\VC141.PDB" /Gd /TP /analyze- /FC E:\CODE\PROJECTS\C++\RADIAN2\RADIAN2\RADIAN\FEATURES\AIMBOT\ENGINEPREDICTION.CPP
^E:\CODE\PROJECTS\C++\RADIAN2\RADIAN2\RADIAN\HOOKS.CPP
/c /ZI /JMC /nologo /W3 /WX- /diagnostics:classic /sdl /Od /Oi /Oy- /D _CRT_SECURE_NO_WARNINGS /D _WINDLL /D _MBCS /Gm- /EHsc /RTC1 /MDd /GS /Gy /fp:precise /Zc:wchar_t /Zc:forScope /Zc:inline /std:c++latest /Fo"DEBUG\\" /Fd"DEBUG\VC141.PDB" /Gd /TP /analyze- /FC E:\CODE\PROJECTS\C++\RADIAN2\RADIAN2\RADIAN\HOOKS.CPP
^E:\CODE\PROJECTS\C++\RADIAN2\RADIAN2\RADIAN\MENU\MENU.CPP
/c /ZI /JMC /nologo /W3 /WX- /diagnostics:classic /sdl /Od /Oi /Oy- /D _CRT_SECURE_NO_WARNINGS /D _WINDLL /D _MBCS /Gm- /EHsc /RTC1 /MDd /GS /Gy /fp:precise /Zc:wchar_t /Zc:forScope /Zc:inline /std:c++latest /Fo"DEBUG\\" /Fd"DEBUG\VC141.PDB" /Gd /TP /analyze- /FC E:\CODE\PROJECTS\C++\RADIAN2\RADIAN2\RADIAN\MENU\MENU.CPP
